ArquiProyecto/singleCycle_tb.vcd
$date
	Tue Nov 21 09:05:23 2023
$end
$version
	Icarus Verilog
$end
$timescale
	1ps
$end
$scope module testbench $end
$var wire 32 ! WriteData [31:0] $end
$var wire 1 " MemWrite $end
$var wire 32 # DataAdr [31:0] $end
$var reg 1 $ clk $end
$var reg 1 % reset $end
$scope module dut $end
$var wire 1 $ clk $end
$var wire 1 % reset $end
$var wire 32 & WriteData [31:0] $end
$var wire 32 ' ReadData [31:0] $end
$var wire 32 ( PC [31:0] $end
$var wire 1 " MemWrite $end
$var wire 32 ) Instr [31:0] $end
$var wire 32 * DataAdr [31:0] $end
$scope module arm $end
$var wire 1 $ clk $end
$var wire 1 % reset $end
$var wire 1 + wireSLT $end
$var wire 32 , WriteData [31:0] $end
$var wire 1 - RegWrite $end
$var wire 2 . RegSrc [1:0] $end
$var wire 32 / ReadData [31:0] $end
$var wire 1 0 PCSrc $end
$var wire 32 1 PC [31:0] $end
$var wire 1 2 MemtoReg $end
$var wire 1 " MemWrite $end
$var wire 32 3 Instr [31:0] $end
$var wire 2 4 ImmSrc [1:0] $end
$var wire 1 5 ALUSrc $end
$var wire 32 6 ALUResult [31:0] $end
$var wire 4 7 ALUFlags [3:0] $end
$var wire 2 8 ALUControl [1:0] $end
$scope module c $end
$var wire 20 9 Instr [31:12] $end
$var wire 1 $ clk $end
$var wire 1 % reset $end
$var wire 1 + wireSLT $end
$var wire 1 - RegWrite $end
$var wire 1 : RegW $end
$var wire 2 ; RegSrc [1:0] $end
$var wire 1 0 PCSrc $end
$var wire 1 < PCS $end
$var wire 1 = NoWrite $end
$var wire 1 2 MemtoReg $end
$var wire 1 " MemWrite $end
$var wire 1 > MemW $end
$var wire 2 ? ImmSrc [1:0] $end
$var wire 2 @ FlagW [1:0] $end
$var wire 1 5 ALUSrc $end
$var wire 4 A ALUFlags [3:0] $end
$var wire 2 B ALUControl [1:0] $end
$scope module cl $end
$var wire 4 C Cond [3:0] $end
$var wire 2 D FlagWrite [1:0] $end
$var wire 1 " MemWrite $end
$var wire 1 0 PCSrc $end
$var wire 1 - RegWrite $end
$var wire 1 $ clk $end
$var wire 1 % reset $end
$var wire 1 : RegW $end
$var wire 1 < PCS $end
$var wire 1 = NoWrite $end
$var wire 1 > MemW $end
$var wire 4 E Flags [3:0] $end
$var wire 2 F FlagW [1:0] $end
$var wire 1 G CondEx $end
$var wire 4 H ALUFlags [3:0] $end
$scope module cc $end
$var wire 4 I Cond [3:0] $end
$var wire 4 J Flags [3:0] $end
$var wire 1 K ge $end
$var wire 1 L zero $end
$var wire 1 M overflow $end
$var wire 1 N neg $end
$var wire 1 O carry $end
$var reg 1 G CondEx $end
$upscope $end
$scope module flagreg0 $end
$var wire 1 $ clk $end
$var wire 2 P d [1:0] $end
$var wire 1 Q en $end
$var wire 1 % reset $end
$var parameter 32 R WIDTH $end
$var reg 2 S q [1:0] $end
$upscope $end
$scope module flagreg1 $end
$var wire 1 $ clk $end
$var wire 2 T d [1:0] $end
$var wire 1 U en $end
$var wire 1 % reset $end
$var parameter 32 V WIDTH $end
$var reg 2 W q [1:0] $end
$upscope $end
$upscope $end
$scope module dec $end
$var wire 6 X Funct [5:0] $end
$var wire 2 Y Op [1:0] $end
$var wire 1 < PCS $end
$var wire 4 Z Rd [3:0] $end
$var wire 1 + wireSLT $end
$var wire 1 : RegW $end
$var wire 2 [ RegSrc [1:0] $end
$var wire 1 2 MemtoReg $end
$var wire 1 > MemW $end
$var wire 2 \ ImmSrc [1:0] $end
$var wire 1 ] Branch $end
$var wire 1 5 ALUSrc $end
$var wire 1 ^ ALUOp $end
$var reg 2 _ ALUControl [1:0] $end
$var reg 2 ` FlagW [1:0] $end
$var reg 1 = NoWrite $end
$var reg 10 a controls [9:0] $end
$upscope $end
$upscope $end
$scope module dp $end
$var wire 2 b ALUControl [1:0] $end
$var wire 1 5 ALUSrc $end
$var wire 2 c ImmSrc [1:0] $end
$var wire 1 2 MemtoReg $end
$var wire 1 0 PCSrc $end
$var wire 2 d RegSrc [1:0] $end
$var wire 1 - RegWrite $end
$var wire 1 $ clk $end
$var wire 1 % reset $end
$var wire 1 + wireSLT $end
$var wire 32 e WriteData [31:0] $end
$var wire 32 f SrcB [31:0] $end
$var wire 32 g SrcA [31:0] $end
$var wire 32 h Result1 [31:0] $end
$var wire 32 i Result [31:0] $end
$var wire 32 j ReadData [31:0] $end
$var wire 4 k RA2 [3:0] $end
$var wire 4 l RA1 [3:0] $end
$var wire 32 m PCPlus8 [31:0] $end
$var wire 32 n PCPlus4 [31:0] $end
$var wire 32 o PCNext [31:0] $end
$var wire 32 p PC [31:0] $end
$var wire 32 q Instr [31:0] $end
$var wire 32 r ExtImm [31:0] $end
$var wire 32 s ALUResult [31:0] $end
$var wire 4 t ALUFlags [3:0] $end
$scope module alu $end
$var wire 2 u ALUControl [1:0] $end
$var wire 1 v carry $end
$var wire 1 w overflow $end
$var wire 1 x zero $end
$var wire 33 y sum [32:0] $end
$var wire 1 z neg $end
$var wire 32 { condinvb [31:0] $end
$var wire 32 | b [31:0] $end
$var wire 32 } a [31:0] $end
$var wire 4 ~ ALUFlags [3:0] $end
$var reg 32 !" Result [31:0] $end
$upscope $end
$scope module ext $end
$var wire 2 "" ImmSrc [1:0] $end
$var wire 24 #" Instr [23:0] $end
$var reg 32 $" ExtImm [31:0] $end
$upscope $end
$scope module pcadd1 $end
$var wire 32 %" b [31:0] $end
$var wire 32 &" y [31:0] $end
$var wire 32 '" a [31:0] $end
$var parameter 32 (" WIDTH $end
$upscope $end
$scope module pcadd2 $end
$var wire 32 )" a [31:0] $end
$var wire 32 *" b [31:0] $end
$var wire 32 +" y [31:0] $end
$var parameter 32 ," WIDTH $end
$upscope $end
$scope module pcmux $end
$var wire 32 -" d0 [31:0] $end
$var wire 1 0 s $end
$var wire 32 ." y [31:0] $end
$var wire 32 /" d1 [31:0] $end
$var parameter 32 0" WIDTH $end
$upscope $end
$scope module pcreg $end
$var wire 1 $ clk $end
$var wire 32 1" d [31:0] $end
$var wire 1 % reset $end
$var parameter 32 2" WIDTH $end
$var reg 32 3" q [31:0] $end
$upscope $end
$scope module ra1mux $end
$var wire 4 4" d0 [3:0] $end
$var wire 4 5" d1 [3:0] $end
$var wire 1 6" s $end
$var wire 4 7" y [3:0] $end
$var parameter 32 8" WIDTH $end
$upscope $end
$scope module ra2mux $end
$var wire 4 9" d0 [3:0] $end
$var wire 4 :" d1 [3:0] $end
$var wire 1 ;" s $end
$var wire 4 <" y [3:0] $end
$var parameter 32 =" WIDTH $end
$upscope $end
$scope module resmux $end
$var wire 32 >" d0 [31:0] $end
$var wire 1 2 s $end
$var wire 32 ?" y [31:0] $end
$var wire 32 @" d1 [31:0] $end
$var parameter 32 A" WIDTH $end
$upscope $end
$scope module rf $end
$var wire 1 $ clk $end
$var wire 32 B" r15 [31:0] $end
$var wire 4 C" ra1 [3:0] $end
$var wire 4 D" ra2 [3:0] $end
$var wire 4 E" wa3 [3:0] $end
$var wire 1 - we3 $end
$var wire 32 F" wd3 [31:0] $end
$var wire 32 G" rd2 [31:0] $end
$var wire 32 H" rd1 [31:0] $end
$upscope $end
$scope module sltmux $end
$var wire 32 I" d0 [31:0] $end
$var wire 32 J" d1 [31:0] $end
$var wire 32 K" d2 [31:0] $end
$var wire 2 L" s [1:0] $end
$var wire 32 M" y [31:0] $end
$var parameter 32 N" WIDTH $end
$upscope $end
$scope module srcbmux $end
$var wire 32 O" d0 [31:0] $end
$var wire 32 P" d1 [31:0] $end
$var wire 1 5 s $end
$var wire 32 Q" y [31:0] $end
$var parameter 32 R" WIDTH $end
$upscope $end
$upscope $end
$upscope $end
$scope module dmem $end
$var wire 32 S" a [31:0] $end
$var wire 1 $ clk $end
$var wire 32 T" rd [31:0] $end
$var wire 32 U" wd [31:0] $end
$var wire 1 " we $end
$upscope $end
$scope module imem $end
$var wire 32 V" a [31:0] $end
$var wire 32 W" rd [31:0] $end
$upscope $end
$upscope $end
$upscope $end
$enddefinitions $end
$comment Show the parameter values. $end
$dumpall
b100000 R"
b100000 N"
b100000 A"
b100 ="
b100 8"
b100000 2"
b100000 0"
b100000 ,"
b100000 ("
b10 V
b10 R
$end
#0
$dumpvars
b11100000010011110000000000001111 W"
b0 V"
b1000 U"
bx T"
b0 S"
b1000 Q"
b1111 P"
b1000 O"
b0 M"
b11 L"
b0 K"
b0 J"
b1 I"
b1000 H"
b1000 G"
b0 F"
b0 E"
b1111 D"
b1111 C"
b1000 B"
bx @"
b0 ?"
b0 >"
b1111 <"
0;"
b0 :"
b1111 9"
b1111 7"
06"
b1111 5"
b1111 4"
b0 3"
b100 1"
b0 /"
b100 ."
b100 -"
b1000 +"
b100 *"
b100 )"
b0 '"
b100 &"
b100 %"
b1111 $"
b10011110000000000001111 #"
b0 ""
b0 !"
b110 ~
b1000 }
b1000 |
b11111111111111111111111111110111 {
0z
b100000000000000000000000000000000 y
1x
0w
1v
b1 u
b110 t
b0 s
b1111 r
b11100000010011110000000000001111 q
b0 p
b100 o
b100 n
b1000 m
b1111 l
b1111 k
bx j
b0 i
b0 h
b1000 g
b1000 f
b1000 e
b0 d
b0 c
b1 b
b10010 a
b0 `
b1 _
1^
0]
b0 \
b0 [
b0 Z
b0 Y
b100 X
b0 W
0U
b1 T
b0 S
0Q
b10 P
0O
0N
0M
0L
1K
b0 J
b1110 I
b110 H
1G
b0 F
b0 E
b0 D
b1110 C
b1 B
b110 A
b0 @
b0 ?
0>
0=
0<
b0 ;
1:
b11100000010011110000 9
b1 8
b110 7
b0 6
05
b0 4
b11100000010011110000000000001111 3
02
b0 1
00
bx /
b0 .
1-
b1000 ,
0+
b0 *
b11100000010011110000000000001111 )
b0 (
bx '
b1000 &
1%
1$
b0 #
0"
b1000 !
$end
#5
0$
#10
1$
#15
0$
#20
1$
#22
0%
#25
0$
#30
b10 L"
b0 P
0v
0z
15
b0 8
b0 B
b0 _
b0 b
b0 u
b1010010 a
b101 h
b101 /"
b101 F"
b101 M"
b101 {
b101 r
b101 $"
b101 P"
b101 k
b101 <"
b101 D"
b0 l
b0 7"
b0 C"
b101000 X
b10 Z
b0 T
b101 i
b101 ?"
b101 K"
b100000000010000000000101 #"
b10 E"
b10 :"
b101 9"
b0 4"
b11100010100000000010 9
b0 7
b0 A
b0 H
b0 t
b0 ~
0x
b101 #
b101 *
b101 6
b101 s
b101 !"
b101 >"
b101 S"
b101 f
b101 |
b101 Q"
b11100010100000000010000000000101 )
b11100010100000000010000000000101 3
b11100010100000000010000000000101 q
b11100010100000000010000000000101 W"
b101 y
b0 g
b0 }
b0 H"
bx !
bx &
bx ,
bx e
bx G"
bx O"
bx U"
b1000 o
b1000 ."
b1000 1"
b1100 m
b1100 +"
b1100 B"
b1000 n
b1000 &"
b1000 )"
b1000 -"
b100 (
b100 1
b100 p
b100 '"
b100 3"
b100 V"
1$
#35
0$
#40
b11 L"
b10 P
b10 7
b10 A
b10 H
b10 t
b10 ~
1v
b101 h
b101 /"
b101 F"
b101 M"
0-
1U
1Q
b101 i
b101 ?"
b101 K"
b11111111111111111111111111111111 {
b11 D
b101 #
b101 *
b101 6
b101 s
b101 !"
b101 >"
b101 S"
05
b0 f
b0 |
b0 Q"
b0 !
b0 &
b0 ,
b0 e
b0 G"
b0 O"
b0 U"
b100000000000000000000000000000101 y
b101 g
b101 }
b101 H"
1=
b11 @
b11 F
b11 `
b1 8
b1 B
b1 _
b1 b
b1 u
b10010 a
b0 r
b0 $"
b0 P"
b0 k
b0 <"
b0 D"
b10 l
b10 7"
b10 C"
b10101 X
b0 Z
b10100100000000000000000 #"
b0 E"
b0 :"
b0 9"
b10 4"
b11100001010100100000 9
b11100001010100100000000000000000 )
b11100001010100100000000000000000 3
b11100001010100100000000000000000 q
b11100001010100100000000000000000 W"
b1100 o
b1100 ."
b1100 1"
b10000 m
b10000 +"
b10000 B"
b1100 n
b1100 &"
b1100 )"
b1100 -"
b1000 (
b1000 1
b1000 p
b1000 '"
b1000 3"
b1000 V"
1$
#45
0$
#50
b10 L"
b0 P
0w
b0 T
b1100 h
b1100 /"
b1100 F"
b1100 M"
0v
1-
0U
0Q
b0 7
b0 A
b0 H
b0 t
b0 ~
0z
b1100 i
b1100 ?"
b1100 K"
b1100 {
b1100 f
b1100 |
b1100 Q"
b0 D
b1100 #
b1100 *
b1100 6
b1100 s
b1100 !"
b1100 >"
b1100 S"
15
bx !
bx &
bx ,
bx e
bx G"
bx O"
bx U"
b1100 y
b0 g
b0 }
b0 H"
0=
b0 @
b0 F
b0 `
b0 8
b0 B
b0 _
b0 b
b0 u
b1010010 a
b1100 r
b1100 $"
b1100 P"
b1100 k
b1100 <"
b1100 D"
b0 l
b0 7"
b0 C"
b101000 X
b11 Z
b100000000011000000001100 #"
b11 E"
b11 :"
b1100 9"
b0 4"
b11100010100000000011 9
b11100010100000000011000000001100 )
b11100010100000000011000000001100 3
b11100010100000000011000000001100 q
b11100010100000000011000000001100 W"
b10000 o
b10000 ."
b10000 1"
1O
b10100 m
b10100 +"
b10100 B"
b10000 n
b10000 &"
b10000 )"
b10000 -"
b1100 (
b1100 1
b1100 p
b1100 '"
b1100 3"
b1100 V"
b10 E
b10 J
b10 S
1$
#55
0$
#60
b11 L"
b10 P
b10 7
b10 A
b10 H
b10 t
b10 ~
1v
b11 h
b11 /"
b11 F"
b11 M"
b11 i
b11 ?"
b11 K"
b11111111111111111111111111110110 {
b11 #
b11 *
b11 6
b11 s
b11 !"
b11 >"
b11 S"
b1001 f
b1001 |
b1001 Q"
b100000000000000000000000000000011 y
b1100 g
b1100 }
b1100 H"
b1 8
b1 B
b1 _
b1 b
b1 u
b1001 r
b1001 $"
b1001 P"
b1001 k
b1001 <"
b1001 D"
b11 l
b11 7"
b11 C"
b100100 X
b111 Z
b10000110111000000001001 #"
b111 E"
b111 :"
b1001 9"
b11 4"
b11100010010000110111 9
b11100010010000110111000000001001 )
b11100010010000110111000000001001 3
b11100010010000110111000000001001 q
b11100010010000110111000000001001 W"
b10100 o
b10100 ."
b10100 1"
b11000 m
b11000 +"
b11000 B"
b10100 n
b10100 &"
b10100 )"
b10100 -"
b10000 (
b10000 1
b10000 p
b10000 '"
b10000 3"
b10000 V"
1$
#65
0$
#70
b111 h
b111 /"
b111 F"
b111 M"
b111 i
b111 ?"
b111 K"
b10 L"
b0 P
b111 #
b111 *
b111 6
b111 s
b111 !"
b111 >"
b111 S"
b11111111111111111111111111111010 {
b0 7
b0 A
b0 H
b0 t
b0 ~
0v
05
b101 f
b101 |
b101 Q"
b101 !
b101 &
b101 ,
b101 e
b101 G"
b101 O"
b101 U"
b11111111111111111111111111111110 y
b11 g
b11 }
b11 H"
b11 8
b11 B
b11 _
b11 b
b11 u
b10010 a
b10 r
b10 $"
b10 P"
b10 k
b10 <"
b10 D"
b111 l
b111 7"
b111 C"
b11000 X
b100 Z
b100001110100000000000010 #"
b100 E"
b100 :"
b10 9"
b111 4"
b11100001100001110100 9
b11100001100001110100000000000010 )
b11100001100001110100000000000010 3
b11100001100001110100000000000010 q
b11100001100001110100000000000010 W"
b11000 o
b11000 ."
b11000 1"
b11100 m
b11100 +"
b11100 B"
b11000 n
b11000 &"
b11000 )"
b11000 -"
b10100 (
b10100 1
b10100 p
b10100 '"
b10100 3"
b10100 V"
1$
#75
0$
#80
b100 h
b100 /"
b100 F"
b100 M"
b100 i
b100 ?"
b100 K"
b111 {
b111 f
b111 |
b111 Q"
b100 #
b100 *
b100 6
b100 s
b100 !"
b100 >"
b100 S"
b111 !
b111 &
b111 ,
b111 e
b111 G"
b111 O"
b111 U"
b10011 y
b1100 g
b1100 }
b1100 H"
b10 8
b10 B
b10 _
b10 b
b10 u
b100 r
b100 $"
b100 P"
b100 k
b100 <"
b100 D"
b11 l
b11 7"
b11 C"
b0 X
b101 Z
b110101000000000100 #"
b101 E"
b101 :"
b100 9"
b11 4"
b11100000000000110101 9
b11100000000000110101000000000100 )
b11100000000000110101000000000100 3
b11100000000000110101000000000100 q
b11100000000000110101000000000100 W"
b11100 o
b11100 ."
b11100 1"
b100000 m
b100000 +"
b100000 B"
b11100 n
b11100 &"
b11100 )"
b11100 -"
b11000 (
b11000 1
b11000 p
b11000 '"
b11000 3"
b11000 V"
1$
#85
0$
#90
b1011 h
b1011 /"
b1011 F"
b1011 M"
b1011 i
b1011 ?"
b1011 K"
b1011 #
b1011 *
b1011 6
b1011 s
b1011 !"
b1011 >"
b1011 S"
b1011 y
b100 g
b100 }
b100 H"
b0 8
b0 B
b0 _
b0 b
b0 u
b101 l
b101 7"
b101 C"
b1000 X
b100001010101000000000100 #"
b101 4"
b11100000100001010101 9
b11100000100001010101000000000100 )
b11100000100001010101000000000100 3
b11100000100001010101000000000100 q
b11100000100001010101000000000100 W"
b100000 o
b100000 ."
b100000 1"
b100100 m
b100100 +"
b100100 B"
b100000 n
b100000 &"
b100000 )"
b100000 -"
b11100 (
b11100 1
b11100 p
b11100 '"
b11100 3"
b11100 V"
1$
#95
0$
#100
b11 L"
b10 P
b10 7
b10 A
b10 H
b10 t
b10 ~
1v
1U
1Q
b11111111111111111111111111111100 {
b11 f
b11 |
b11 Q"
b11 D
b11 !
b11 &
b11 ,
b11 e
b11 G"
b11 O"
b11 U"
b11 @
b11 F
b11 `
b1 8
b1 B
b1 _
b1 b
b1 u
b1000 h
b1000 /"
b1000 F"
b1000 M"
b111 r
b111 $"
b111 P"
b111 k
b111 <"
b111 D"
b101 X
b1000 Z
b1000 i
b1000 ?"
b1000 K"
b10101011000000000000111 #"
b1000 E"
b1000 :"
b111 9"
b11100000010101011000 9
b1000 #
b1000 *
b1000 6
b1000 s
b1000 !"
b1000 >"
b1000 S"
b11100000010101011000000000000111 )
b11100000010101011000000000000111 3
b11100000010101011000000000000111 q
b11100000010101011000000000000111 W"
b100100 o
b100100 ."
b100100 1"
b100000000000000000000000000001000 y
b1011 g
b1011 }
b1011 H"
b101000 m
b101000 +"
b101000 B"
b100100 n
b100100 &"
b100100 )"
b100100 -"
b100000 (
b100000 1
b100000 p
b100000 '"
b100000 3"
b100000 V"
1$
#105
0$
#110
b10 L"
b0 P
b1011100 h
b1011100 /"
b1011100 F"
b1011100 M"
0v
b0 T
b1011100 i
b1011100 ?"
b1011100 K"
b110000 {
1<
16"
0U
0Q
0-
b110000 f
b110000 |
b110000 Q"
b0 7
b0 A
b0 H
b0 t
b0 ~
0x
b1011100 #
b1011100 *
b1011100 6
b1011100 s
b1011100 !"
b1011100 >"
b1011100 S"
0^
1]
0:
15
b10 4
b10 ?
b10 \
b10 c
b10 ""
b1 .
b1 ;
b1 [
b1 d
b0 D
bx !
bx &
bx ,
bx e
bx G"
bx O"
bx U"
b1011100 y
b101100 g
b101100 }
b101100 H"
b0 @
b0 F
b0 `
b0 8
b0 B
b0 _
b0 b
b0 u
b1101000100 a
0G
b110000 r
b110000 $"
b110000 P"
b1100 k
b1100 <"
b1100 D"
b1111 l
b1111 7"
b1111 C"
b10 Y
b100000 X
b0 Z
b0 C
b0 I
b1100 #"
b0 E"
b0 :"
b1100 9"
b0 4"
b1010000000000000 9
b1010000000000000000000001100 )
b1010000000000000000000001100 3
b1010000000000000000000001100 q
b1010000000000000000000001100 W"
b101000 o
b101000 ."
b101000 1"
b101100 m
b101100 +"
b101100 B"
b101000 n
b101000 &"
b101000 )"
b101000 -"
b100100 (
b100100 1
b100100 p
b100100 '"
b100100 3"
b100100 V"
1$
#115
0$
#120
b11 L"
b10 P
b10 7
b10 A
b10 H
b10 t
b10 ~
1v
1U
1Q
b11 D
1-
b11 l
b11 7"
b11 C"
b11 @
b11 F
b11 `
b1 8
b1 B
b1 _
b1 b
b1 u
0<
06"
b11111111111111111111111111111000 {
1^
0]
1:
05
b0 4
b0 ?
b0 \
b0 c
b0 ""
b0 .
b0 ;
b0 [
b0 d
00
b111 f
b111 |
b111 Q"
b111 !
b111 &
b111 ,
b111 e
b111 G"
b111 O"
b111 U"
b10010 a
1G
b101 h
b101 /"
b101 F"
b101 M"
b100 r
b100 $"
b100 P"
b100 k
b100 <"
b100 D"
b0 Y
b101 X
b1000 Z
b1110 C
b1110 I
b101 i
b101 ?"
b101 K"
b10100111000000000000100 #"
b1000 E"
b1000 :"
b100 9"
b11 4"
b11100000010100111000 9
b101 #
b101 *
b101 6
b101 s
b101 !"
b101 >"
b101 S"
b11100000010100111000000000000100 )
b11100000010100111000000000000100 3
b11100000010100111000000000000100 q
b11100000010100111000000000000100 W"
b100000000000000000000000000000101 y
b1100 g
b1100 }
b1100 H"
b101100 o
b101100 ."
b101100 1"
b110000 m
b110000 +"
b110000 B"
b101100 n
b101100 &"
b101100 )"
b101100 -"
b101000 (
b101000 1
b101000 p
b101000 '"
b101000 3"
b101000 V"
1$
#125
0$
#130
b10 L"
b0 P
b110100 h
b110100 /"
b110100 F"
b110100 M"
10
0-
0v
0U
0Q
b0 T
b110100 i
b110100 ?"
b110100 K"
b0 {
1<
16"
b0 f
b0 |
b0 Q"
b0 D
b0 7
b0 A
b0 H
b0 t
b0 ~
0x
b110100 #
b110100 *
b110100 6
b110100 s
b110100 !"
b110100 >"
b110100 S"
0^
1]
0:
15
b10 4
b10 ?
b10 \
b10 c
b10 ""
b1 .
b1 ;
b1 [
b1 d
b0 !
b0 &
b0 ,
b0 e
b0 G"
b0 O"
b0 U"
b110100 y
b110100 g
b110100 }
b110100 H"
b0 @
b0 F
b0 `
b0 8
b0 B
b0 _
b0 b
b0 u
b1101000100 a
b0 r
b0 $"
b0 P"
b0 k
b0 <"
b0 D"
b1111 l
b1111 7"
b1111 C"
b10 Y
b100000 X
b0 Z
b1010 C
b1010 I
b0 #"
b0 E"
b0 :"
b0 9"
b0 4"
b10101010000000000000 9
b10101010000000000000000000000000 )
b10101010000000000000000000000000 3
b10101010000000000000000000000000 q
b10101010000000000000000000000000 W"
b110100 o
b110100 ."
b110100 1"
b110100 m
b110100 +"
b110100 B"
b110000 n
b110000 &"
b110000 )"
b110000 -"
b101100 (
b101100 1
b101100 p
b101100 '"
b101100 3"
b101100 V"
1$
#135
0$
#140
b10 T
b1000 7
b1000 A
b1000 H
b1000 t
b1000 ~
1z
1U
1Q
b11 D
00
1-
b111 l
b111 7"
b111 C"
b11 @
b11 F
b11 `
b1 8
b1 B
b1 _
b1 b
b1 u
0<
06"
b11111111111111111111111111111010 {
1^
0]
1:
05
b0 4
b0 ?
b0 \
b0 c
b0 ""
b0 .
b0 ;
b0 [
b0 d
b111000 o
b111000 ."
b111000 1"
b101 f
b101 |
b101 Q"
b101 !
b101 &
b101 ,
b101 e
b101 G"
b101 O"
b101 U"
b10010 a
b11111111111111111111111111111110 h
b11111111111111111111111111111110 /"
b11111111111111111111111111111110 F"
b11111111111111111111111111111110 M"
b10 r
b10 $"
b10 P"
b10 k
b10 <"
b10 D"
b0 Y
b101 X
b1000 Z
b1110 C
b1110 I
b11111111111111111111111111111110 i
b11111111111111111111111111111110 ?"
b11111111111111111111111111111110 K"
b10101111000000000000010 #"
b1000 E"
b1000 :"
b10 9"
b111 4"
b11100000010101111000 9
b11111111111111111111111111111110 #
b11111111111111111111111111111110 *
b11111111111111111111111111111110 6
b11111111111111111111111111111110 s
b11111111111111111111111111111110 !"
b11111111111111111111111111111110 >"
b11111111111111111111111111111110 S"
b11100000010101111000000000000010 )
b11100000010101111000000000000010 3
b11100000010101111000000000000010 q
b11100000010101111000000000000010 W"
b11111111111111111111111111111110 y
b11 g
b11 }
b11 H"
b111100 m
b111100 +"
b111100 B"
b111000 n
b111000 &"
b111000 )"
b111000 -"
b110100 (
b110100 1
b110100 p
b110100 '"
b110100 3"
b110100 V"
1$
#145
0$
#150
b10 L"
b0 P
b0 T
b1100 h
b1100 /"
b1100 F"
b1100 M"
0v
0U
0Q
b0 7
b0 A
b0 H
b0 t
b0 ~
0z
b1100 i
b1100 ?"
b1100 K"
b1 {
b1 f
b1 |
b1 Q"
b0 D
b1100 #
b1100 *
b1100 6
b1100 s
b1100 !"
b1100 >"
b1100 S"
15
bx !
bx &
bx ,
bx e
bx G"
bx O"
bx U"
b1100 y
b1011 g
b1011 }
b1011 H"
b0 @
b0 F
b0 `
b0 8
b0 B
b0 _
b0 b
b0 u
b1010010 a
b1 r
b1 $"
b1 P"
b1 k
b1 <"
b1 D"
b101 l
b101 7"
b101 C"
b101000 X
b111 Z
b1011 C
b1011 I
b100001010111000000000001 #"
b111 E"
b111 :"
b1 9"
b101 4"
b10110010100001010111 9
0K
b10110010100001010111000000000001 )
b10110010100001010111000000000001 3
b10110010100001010111000000000001 q
b10110010100001010111000000000001 W"
b111100 o
b111100 ."
b111100 1"
0O
1N
b1000000 m
b1000000 +"
b1000000 B"
b111100 n
b111100 &"
b111100 )"
b111100 -"
b111000 (
b111000 1
b111000 p
b111000 '"
b111000 3"
b111000 V"
b0 S
b1000 E
b1000 J
b10 W
1$
#155
0$
#160
b11 L"
b10 P
b10 7
b10 A
b10 H
b10 t
b10 ~
1v
b111 h
b111 /"
b111 F"
b111 M"
b111 i
b111 ?"
b111 K"
b11111111111111111111111111111010 {
b111 #
b111 *
b111 6
b111 s
b111 !"
b111 >"
b111 S"
05
b101 f
b101 |
b101 Q"
b101 !
b101 &
b101 ,
b101 e
b101 G"
b101 O"
b101 U"
b100000000000000000000000000000111 y
b1100 g
b1100 }
b1100 H"
b1 8
b1 B
b1 _
b1 b
b1 u
b10010 a
b10 r
b10 $"
b10 P"
b10 k
b10 <"
b10 D"
b111 l
b111 7"
b111 C"
b100 X
b1110 C
b1110 I
b10001110111000000000010 #"
b10 9"
b111 4"
b11100000010001110111 9
b11100000010001110111000000000010 )
b11100000010001110111000000000010 3
b11100000010001110111000000000010 q
b11100000010001110111000000000010 W"
b1000000 o
b1000000 ."
b1000000 1"
b1000100 m
b1000100 +"
b1000100 B"
b1000000 n
b1000000 &"
b1000000 )"
b1000000 -"
b111100 (
b111100 1
b111100 p
b111100 '"
b111100 3"
b111100 V"
1$
#165
0$
#170
b10 L"
b0 P
b1010100 {
b0 7
b0 A
b0 H
b0 t
b0 ~
0v
0-
1"
b1010100 f
b1010100 |
b1010100 Q"
0^
1>
0:
12
15
b1 4
b1 ?
b1 \
b1 c
b1 ""
b111 !
b111 &
b111 ,
b111 e
b111 G"
b111 O"
b111 U"
b0 8
b0 B
b0 _
b0 b
b0 u
b11101000 a
bx h
bx /"
bx F"
bx M"
b1010100 r
b1010100 $"
b1010100 P"
b100 k
b100 <"
b100 D"
b11 l
b11 7"
b11 C"
b1 Y
b11000 X
bx i
bx ?"
bx K"
b100000110111000001010100 #"
b100 9"
b11 4"
b11100101100000110111 9
b1100000 #
b1100000 *
b1100000 6
b1100000 s
b1100000 !"
b1100000 >"
b1100000 S"
b11100101100000110111000001010100 )
b11100101100000110111000001010100 3
b11100101100000110111000001010100 q
b11100101100000110111000001010100 W"
b1000100 o
b1000100 ."
b1000100 1"
b1100000 y
b1100 g
b1100 }
b1100 H"
b1001000 m
b1001000 +"
b1001000 B"
b1000100 n
b1000100 &"
b1000100 )"
b1000100 -"
b1000000 (
b1000000 1
b1000000 p
b1000000 '"
b1000000 3"
b1000000 V"
1$
#175
0$
#180
1-
0"
b1100000 {
b1100000 #
b1100000 *
b1100000 6
b1100000 s
b1100000 !"
b1100000 >"
b1100000 S"
0>
1:
b1100000 f
b1100000 |
b1100000 Q"
b0 !
b0 &
b0 ,
b0 e
b0 G"
b0 O"
b0 U"
b1100000 y
b0 g
b0 }
b0 H"
b11110000 a
b1100000 r
b1100000 $"
b1100000 P"
b0 k
b0 <"
b0 D"
b0 l
b0 7"
b0 C"
b11001 X
b10 Z
b100100000010000001100000 #"
b10 E"
b10 :"
b0 9"
b0 4"
b11100101100100000010 9
b111 h
b111 /"
b111 F"
b111 M"
b11100101100100000010000001100000 )
b11100101100100000010000001100000 3
b11100101100100000010000001100000 q
b11100101100100000010000001100000 W"
b1001000 o
b1001000 ."
b1001000 1"
b111 i
b111 ?"
b111 K"
b1001100 m
b1001100 +"
b1001100 B"
b1001000 n
b1001000 &"
b1001000 )"
b1001000 -"
b1000100 (
b1000100 1
b1000100 p
b1000100 '"
b1000100 3"
b1000100 V"
b111 '
b111 /
b111 j
b111 @"
b111 T"
1$
#185
0$
#190
b1010000 h
b1010000 /"
b1010000 F"
b1010000 M"
bx '
bx /
bx j
bx @"
bx T"
b1010000 i
b1010000 ?"
b1010000 K"
10
b0 {
b1010000 #
b1010000 *
b1010000 6
b1010000 s
b1010000 !"
b1010000 >"
b1010000 S"
1^
02
05
b0 4
b0 ?
b0 \
b0 c
b0 ""
1<
b0 f
b0 |
b0 Q"
b1010000 y
b1010000 g
b1010000 }
b1010000 H"
b10010 a
b0 r
b0 $"
b0 P"
b1111 l
b1111 7"
b1111 C"
b0 Y
b1000 X
b1111 Z
b100011111111000000000000 #"
b1111 E"
b1111 :"
b1111 4"
b11100000100011111111 9
b11100000100011111111000000000000 )
b11100000100011111111000000000000 3
b11100000100011111111000000000000 q
b11100000100011111111000000000000 W"
b1010000 o
b1010000 ."
b1010000 1"
b1010000 m
b1010000 +"
b1010000 B"
b1001100 n
b1001100 &"
b1001100 )"
b1001100 -"
b1001000 (
b1001000 1
b1001000 p
b1001000 '"
b1001000 3"
b1001000 V"
1$
#195
0$
